{
    "descriptions": {
        "Some nebulous gas":1
    },
    "resources": {
        "gas":[0,5]
    },
    "items": {
        "artifact":[0,1],
        "upgrade":[0,1]
    },
    "properties": {
        "health":0
    }
}
