{
    "descriptions": {
        "Abandoned long ago":15,
        "Abandoned recently, perhaps due to power failure":10,
        "Shields are up, weapons are charged, they don't look friendly":3
    },
    "resources": {
        "metal":[5,5]
    },
    "items": {
        "artifact":[0,1],
        "upgrade":[1,10],
        "power converters":[100,1]
    },
    "properties": {
        "health":500,
        "shop":[1,5]
    }
}
